4 Job-Interview: Social Media Data | Marketing in R
…
There are 5 missing entries in “BODY” column and 15 in “PERSONAL-WEBISTE”. Consequently, we will remove these entries from the data set.

data<-(data[complete.cases(data), ])
data

## Warning: `...` is not empty.
## 
## We detected these problematic arguments:
## * `needs_dots`
## 
## These dots only exist to allow future extensions and should be empty.
## Did you misspecify an argument?

## # A tibble: 4,267 x 12
##        ID Autors TITLE LINK  BODY  PUBDATE             `PERSONAL-WEBSI~ COUNTRY
##     <dbl> <chr>  <chr> <chr> <chr> <dttm>              <chr>            <chr>  
##  1 1.10e8 josie~ @O2 ~ http~ @O2 ~ 2015-05-28 17:29:47 http://twitter.~ gb     
##  2 1.10e8 O2     @luk~ http~ @luk~ 2015-05-28 17:29:30 http://www.o2.c~ gb     
##  3 1.10e8 Mucca~ @Sar~ http~ @Sar~ 2015-05-28 17:29:15 http://twitter.~ gb     
##  4 1.10e8 bhups  Re: ~ http~ Chec~ 2015-05-28 17:29:00 https://communi~ gb     
##  5 1.10e8 helen~ @Ash~ http~ @Ash~ 2015-05-28 17:28:54 http://twitter.~ gb     
##  6 1.10e8 21Ayu~ RT @~ http~ RT @~ 2015-05-28 17:28:36 http://twitter.~ gb     
##  7 1.10e8 O2tou~ RT @~ http~ RT @~ 2015-05-28 17:28:14 http://O2Touch.~ gb     
##  8 1.18e8 O2Aca~ RT @~ http~ RT @~ 2015-05-28 17:28:08 http://www.o2ac~ gb     
##  9 1.49e8 Dave ~ Re: ~ http~ cant~ 2015-05-28 17:28:04 https://www.fac~ gb     
## 10 1.10e8 Emmie~ @The~ http~ @The~ 2015-05-28 17:27:52 http://twitter.~ gb     
## # ... with 4,257 more rows, and 4 more variables: `PUBLISHER-ID` <dbl>,
## #   `PUBLISHER-NAME` <chr>, `ORIG-ID` <chr>, SENTIMENT <dbl>
…
