5 Prediction with RFM | 04-Covid19_Dashboard
…
Based on the visualisation we see that the overall response rate of customers from the training data is around 9%.

## [1] 0.08708333

5.6 Prediction of response rate

Next question we need to address is which combinations of RFM categories have response rates that are above the overall response in the training data. Now we would need to inspect response rates from all 51 combinations, and compare them with the overall one.

## # A tibble: 51 x 3
##    RFM_score Response_rate Count
##    <fct>             <dbl> <int>
##  1 132               1         1
##  2 122               0.5       2
##  3 211               0.333     3
##  4 212               0.333     9
##  5 233               0.333     6
##  6 114               0.25     16
##  7 215               0.179    28
##  8 135               0.170    53
##  9 223               0.167    24
## 10 335               0.153   215
## # ... with 41 more rows
…
Predicted response rate from the training data set is said to be at around 15.1%, while the true response rate taken from validation set is at 10.3%. From comparison of true response rate in the validation data set and the predicted response rate from the training data set it seems that the latter pretty much deviates from the former. In the next section we will split customers from the training set into 3 clusters, and again compare predicted with the true response rate.

5.7 Prediction of response rate with 3 segments

In the previous step we split our RFM categories into two segments, those who had the response rate below 9% percent, and those with above. Let us now rethink segments, and divide our customers in 3 different segments:

Segment 1: RFM combinations that have response rates that exceed twice the overall response rate - RR_Twice.

Segment 2: RFM combinations that exceed the overall response rate but do not exceed twice that rate - RR_Above.

Segment 3: the remaining RFM combinations - RR_Below

## # A tibble: 51 x 4
##    RFM_score Response_rate Count Cluster 
##    <fct>             <dbl> <int> <chr>   
##  1 132               1         1 RR_Twice
##  2 122               0.5       2 RR_Twice
##  3 211               0.333     3 RR_Twice
##  4 212               0.333     9 RR_Twice
##  5 233               0.333     6 RR_Twice
##  6 114               0.25     16 RR_Twice
##  7 215               0.179    28 RR_Twice
##  8 135               0.170    53 RR_Above
##  9 223               0.167    24 RR_Above
## 10 335               0.153   215 RR_Above
## # ... with 41 more rows
…
In order to create such a chart, we will need the information on who responded and who did not respond to our mailing offer from the validation set (= “Florence” column), and the information about the expected response rate based on what we did in our training data. Additionally, we will create a cumulative sum, so that with every customer who responded to our mailing offer the cumulative sum increases by 1.

## # A tibble: 1,600 x 3
##    Florence Predicted_RR Cumulative_Class
##       <int>        <dbl>            <int>
##  1        1        0.5                  1
##  2        0        0.5                  1
##  3        0        0.5                  1
##  4        0        0.333                1
##  5        0        0.333                1
##  6        0        0.333                1
##  7        0        0.333                1
##  8        1        0.333                2
##  9        0        0.333                2
## 10        0        0.333                2
## # ... with 1,590 more rows
…
