6 RFM for Customer Segmentation | 04-Covid19_Dashboard
…
Next, the date of the analysis needs to be defined. The analysis date is important for the recency variable, as it serves as a point in time to which the recency measure is being counted. As analysis date we will take the first day after the day of the most recent transaction: 21.12.2018.

# Date of analysis
analysis_date <- lubridate::as_date("2018-12-21")

By using rfm package we obtained the desirable table:

# Creation of RFM table
rfm_data<-rfm_table_order(data=rfm,Customer.ID,Date,Revenue,analysis_date = analysis_date)
(rfm_data$rfm)

## # A tibble: 1,063 x 9
##    customer_id date_most_recent recency_days transaction_cou~ amount
##          <int> <date>                  <dbl>            <dbl>  <dbl>
##  1         616 2017-12-18                368                1 2.18e4
##  2        4436 2017-04-19                611                5 1.81e5
##  3        6156 2018-11-15                 36               17 6.03e5
##  4        6278 2018-07-26                148                1 2.34e4
##  5        6346 2018-12-12                  9                3 1.79e5
##  6        6371 2018-02-16                308               12 1.28e6
##  7        6431 2018-10-30                 52                3 1.20e6
##  8        6475 2017-05-11                589                3 5.83e4
##  9        6487 2018-09-26                 86                6 4.95e5
## 10        6498 2018-04-17                248                5 1.85e5
## # ... with 1,053 more rows, and 4 more variables: recency_score <int>,
## #   frequency_score <int>, monetary_score <int>, rfm_score <dbl>
…
